%YAML 1.1
%TAG !u! tag:unity3d.com,2011:
--- !u!1045 &1
EditorBuildSettings:
  m_ObjectHideFlags: 0
  serializedVersion: 2
  m_Scenes:
  - enabled: 1
    path: Assets/PlantVSCafAR/_Scenes/PlantVSCafAR.unity
    guid: a6b160997ae4b9a4daf7d46f7b2deaa9
  m_configObjects: {}
